…
And the development version from [GitHub](https://github.com/) with:

``` r
# install.packages("devtools")
devtools::install_github("NikKrieger/USpopcenters")
```

## Example

County-level centers of population from the 2010 US census:

``` r
library(USpopcenters)
county2010
#> # A tibble: 3,221 × 7
#>    STATEFP COUNTYFP COUNAME  STNAME  POPULATION LATITUDE LONGITUDE
#>    <chr>   <chr>    <chr>    <chr>        <int>    <dbl>     <dbl>
#>  1 01      001      Autauga  Alabama      54571     32.5     -86.5
#>  2 01      003      Baldwin  Alabama     182265     30.5     -87.8
#>  3 01      005      Barbour  Alabama      27457     31.8     -85.3
#>  4 01      007      Bibb     Alabama      22915     33.0     -87.1
#>  5 01      009      Blount   Alabama      57322     34.0     -86.6
#>  6 01      011      Bullock  Alabama      10914     32.1     -85.7
#>  7 01      013      Butler   Alabama      20947     31.8     -86.7
#>  8 01      015      Calhoun  Alabama     118572     33.7     -85.8
#>  9 01      017      Chambers Alabama      34215     32.9     -85.3
#> 10 01      019      Cherokee Alabama      25989     34.2     -85.6
#> # … with 3,211 more rows
```
…
